%YAML 1.1
%TAG !u! tag:unity3d.com,2011:
--- !u!21 &2100000
Material:
  serializedVersion: 6
  m_ObjectHideFlags: 0
  m_CorrespondingSourceObject: {fileID: 0}
  m_PrefabInstance: {fileID: 0}
  m_PrefabAsset: {fileID: 0}
  m_Name: Laser_mat 8
  m_Shader: {fileID: 4800000, guid: 372091c6bd14a8c4f9397f060a3cabaa, type: 3}
  m_ShaderKeywords: 
  m_LightmapFlags: 4
  m_EnableInstancingVariants: 0
  m_DoubleSidedGI: 0
  m_CustomRenderQueue: -1
  stringTagMap: {}
  disabledShaderPasses: []
  m_SavedProperties:
    serializedVersion: 3
    m_TexEnvs: []
    m_Floats:
    - Vector1_1210D34F: 20
    - Vector1_5C970BFE: 7
    - Vector1_8A536481: 0.025
    - Vector1_997F677B: 0.04
    m_Colors:
    - Color_603E6CDD: {r: 1, g: 1, b: 1, a: 1}
    - Color_C884BF23: {r: 0.9529412, g: 0.59363467, b: 0.2117647, a: 1}
    - Color_ED7632A9: {r: 0.9528302, g: 0.21198447, b: 0, a: 1}
