%YAML 1.1
%TAG !u! tag:unity3d.com,2011:
--- !u!21 &2100000
Material:
  serializedVersion: 6
  m_ObjectHideFlags: 0
  m_CorrespondingSourceObject: {fileID: 0}
  m_PrefabInstance: {fileID: 0}
  m_PrefabAsset: {fileID: 0}
  m_Name: Laser_mat 5
  m_Shader: {fileID: 4800000, guid: 204a5d193441aac45945ae8356530883, type: 3}
  m_ShaderKeywords: 
  m_LightmapFlags: 4
  m_EnableInstancingVariants: 0
  m_DoubleSidedGI: 0
  m_CustomRenderQueue: -1
  stringTagMap: {}
  disabledShaderPasses: []
  m_SavedProperties:
    serializedVersion: 3
    m_TexEnvs: []
    m_Floats:
    - Vector1_1210D34F: 20
    - Vector1_156EF701: 0.5
    - Vector1_54E43BDD: 1.41
    - Vector1_5C970BFE: 7
    - Vector1_5E6C5557: 1
    - Vector1_8A536481: 0.025
    - Vector1_997F677B: 0.107
    - Vector1_9D06615: 10.83
    - Vector1_A9935CCE: 1
    - Vector1_BBCA2E55: -10
    - Vector1_BCE64DB0: 1.78
    - Vector1_D5138182: 0.04
    - Vector1_E4B5E334: 4.69
    m_Colors:
    - Color_603E6CDD: {r: 1, g: 1, b: 1, a: 1}
    - Color_C884BF23: {r: 0.2765906, g: 1, b: 0, a: 1}
    - Color_ED7632A9: {r: 0.038293168, g: 0.31132078, b: 0, a: 1}
