%YAML 1.1
%TAG !u! tag:unity3d.com,2011:
--- !u!21 &2100000
Material:
  serializedVersion: 6
  m_ObjectHideFlags: 0
  m_CorrespondingSourceObject: {fileID: 0}
  m_PrefabInstance: {fileID: 0}
  m_PrefabAsset: {fileID: 0}
  m_Name: 2DWaves_mat7
  m_Shader: {fileID: 4800000, guid: 755305168103f054c9b3a52b57a44bd5, type: 3}
  m_ShaderKeywords: 
  m_LightmapFlags: 4
  m_EnableInstancingVariants: 0
  m_DoubleSidedGI: 0
  m_CustomRenderQueue: -1
  stringTagMap: {}
  disabledShaderPasses: []
  m_SavedProperties:
    serializedVersion: 3
    m_TexEnvs: []
    m_Floats:
    - Vector1_216D670B: 0.05
    - Vector1_8D5B2212: 1
    - Vector1_ACEFF81B: 0.36
    - Vector1_BA187506: 0.625
    - Vector1_BD043F8A: 0
    - Vector1_BEF32AA6: 0.35
    - Vector1_BF807780: 5
    m_Colors:
    - Color_4A926078: {r: 0.2784314, g: 0.63529414, b: 0.9450981, a: 1}
    - Color_DD6D4F25: {r: 0.07450981, g: 0.32941177, b: 0.5647059, a: 1}
